2019-08-24 17:27:31.1967023 +0200 CEST m=+9.759558201 nikolanemzi: harru
2019-08-24 17:27:34.9219154 +0200 CEST m=+13.484771301 nikolanemzi: chuck
2019-08-24 17:27:51.419859 +0200 CEST m=+29.982714901 dusanmilunovic17: heh
2019-08-24 17:28:13.4181172 +0200 CEST m=+51.980973101 dusanmilunovic17: grow
2019-08-24 17:28:27.0228954 +0200 CEST m=+65.585751301 dusanmilunovic17: b
2019-08-24 17:28:27.6489312 +0200 CEST m=+66.211787101 dusanmilunovic17: s
2019-08-24 17:28:30.444091 +0200 CEST m=+69.006946901 dusanmilunovic17: aa
2019-08-24 17:28:30.7641094 +0200 CEST m=+69.326965301 dusanmilunovic17: a
2019-08-24 17:28:31.12513 +0200 CEST m=+69.687985901 dusanmilunovic17: a
2019-08-24 17:28:33.6172725 +0200 CEST m=+72.180128401 dusanmilunovic17: g
2019-08-24 17:28:35.6843908 +0200 CEST m=+74.247246701 dusanmilunovic17: c
2019-08-24 17:29:17.5337844 +0200 CEST m=+116.096640301 dusanmilunovic17: 1
2019-08-24 17:29:18.1578201 +0200 CEST m=+116.720676001 dusanmilunovic17: 2
2019-08-24 17:29:18.32983 +0200 CEST m=+116.892685901 dusanmilunovic17: 3
2019-08-24 17:29:18.6048457 +0200 CEST m=+117.167701601 dusanmilunovic17: 4
2019-08-24 17:29:18.9738668 +0200 CEST m=+117.536722701 dusanmilunovic17: 5
2019-08-24 17:29:20.3149435 +0200 CEST m=+118.877799401 dusanmilunovic17: 6
2019-08-24 17:29:20.6149607 +0200 CEST m=+119.177816601 dusanmilunovic17: 7
2019-08-24 17:29:21.0209839 +0200 CEST m=+119.583839801 dusanmilunovic17: 8
2019-08-24 17:29:24.0461569 +0200 CEST m=+122.609012801 dusanmilunovic17: 9
